{
    "$schema":"http://json-schema.org/draft-04/schema#",
    "title":"Check project.",
    "type":"object",
    "properties":{
      "name":{
        "type":"string",
        "minLength":3
      },
      "description":{
        "type":"string",
        "minLength":1
      },
      "userGroup":{
        "type":"string",
        "minLength":1
      }
    }
}